{
  "page": 1,
  "total_results": 1837,
  "total_pages": 92,
  "results": [
    {
      "vote_count": 6263,
      "id": 11,
      "video": false,
      "vote_average": 8,
      "title": "Star Wars",
      "popularity": 8.696092,
      "poster_path": "/tvSlBzAdRE29bZe5yYWrJ2ds137.jpg",
      "original_language": "en",
      "original_title": "Star Wars",
      "genre_ids": [
        12,
        28,
        878
      ],
      "backdrop_path": "/4iJfYYoQzZcONB9hNzg0J0wWyPH.jpg",
      "adult": false,
      "overview": "Princess Leia is captured and held hostage by the evil Imperial forces in their effort to take over the galactic Empire. Venturesome Luke Skywalker and dashing captain Han Solo team together with the loveable robot duo R2-D2 and C-3PO to rescue the beautiful princess and restore peace and justice in the Empire.",
      "release_date": "1977-05-25"
    },
    {
      "vote_count": 12,
      "id": 278718,
      "video": false,
      "vote_average": 6,
      "title": "Star",
      "popularity": 1.336294,
      "poster_path": "/hOsvkCePPJ9Fa673zov7sLXH0MI.jpg",
      "original_language": "ru",
      "original_title": "Звезда",
      "genre_ids": [
        18,
        10749,
        35
      ],
      "backdrop_path": "/xLuFxFnYNotSovIVTV3QmfWnL8O.jpg",
      "adult": false,
      "overview": "Three different persons, three different lives are connected in a mysterious way. 15 year old teenager suffering of misunderstanding, his glamorous and arrogant stepmother and the young untalented but full of optimism actress. Their destinies aren’t predetermined and their lives are very fragile.",
      "release_date": "2014-06-18"
    },
    {
      "vote_count": 4339,
      "id": 13475,
      "video": false,
      "vote_average": 7.4,
      "title": "Star Trek",
      "popularity": 4.656085,
      "poster_path": "/xPihqTMhCh6b8DHYzE61jrIiNMS.jpg",
      "original_language": "en",
      "original_title": "Star Trek",
      "genre_ids": [
        878,
        28,
        12
      ],
      "backdrop_path": "/1XOSh6BFZbQ0xN75m4avqgzClyG.jpg",
      "adult": false,
      "overview": "The fate of the galaxy rests in the hands of bitter rivals. One, James Kirk, is a delinquent, thrill-seeking Iowa farm boy. The other, Spock, a Vulcan, was raised in a logic-based society that rejects all emotion. As fiery instinct clashes with calm reason, their unlikely but powerful partnership is the only thing capable of leading their crew through unimaginable danger, boldly going where no one has gone before. The human adventure has begun again.",
      "release_date": "2009-05-06"
    },
    {
      "vote_count": 2410,
      "id": 188927,
      "video": false,
      "vote_average": 6.5,
      "title": "Star Trek Beyond",
      "popularity": 8.132232,
      "poster_path": "/mLrQMqyZgLeP8FrT5LCobKAiqmK.jpg",
      "original_language": "en",
      "original_title": "Star Trek Beyond",
      "genre_ids": [
        878
      ],
      "backdrop_path": "/6uBlEXZCUHM15UNZqNig17VdN4m.jpg",
      "adult": false,
      "overview": "The USS Enterprise crew explores the furthest reaches of uncharted space, where they encounter a mysterious new enemy who puts them and everything the Federation stands for to the test.",
      "release_date": "2016-07-07"
    },
    {
      "vote_count": 7422,
      "id": 140607,
      "video": false,
      "vote_average": 7.5,
      "title": "Star Wars: The Force Awakens",
      "popularity": 11.527623,
      "poster_path": "/weUSwMdQIa3NaXVzwUoIIcAi85d.jpg",
      "original_language": "en",
      "original_title": "Star Wars: The Force Awakens",
      "genre_ids": [
        28,
        12,
        878,
        14
      ],
      "backdrop_path": "/c2Ax8Rox5g6CneChwy1gmu4UbSb.jpg",
      "adult": false,
      "overview": "Thirty years after defeating the Galactic Empire, Han Solo and his allies face a new threat from the evil Kylo Ren and his army of Stormtroopers.",
      "release_date": "2015-12-15"
    },
    {
      "vote_count": 1,
      "id": 310980,
      "video": false,
      "vote_average": 6,
      "title": "Star",
      "popularity": 1.011298,
      "poster_path": null,
      "original_language": "zh",
      "original_title": "Xing",
      "genre_ids": [
        18
      ],
      "backdrop_path": null,
      "adult": false,
      "overview": "Tender exploration of a disconnected relationship between a beautiful stage performer from China, who is trying to preserve her dignity, and a Malay motorcycle gangster, who clings on to their love hopelessly.",
      "release_date": "2014-12-13"
    },
    {
      "vote_count": 4250,
      "id": 54138,
      "video": false,
      "vote_average": 7.4,
      "title": "Star Trek Into Darkness",
      "popularity": 5.907175,
      "poster_path": "/41mhrXASAW3sdn7LBWF49uCX0xi.jpg",
      "original_language": "en",
      "original_title": "Star Trek Into Darkness",
      "genre_ids": [
        28,
        12,
        878
      ],
      "backdrop_path": "/ns0IojuqJe24AHTxe8RVcWJUCDM.jpg",
      "adult": false,
      "overview": "When the crew of the Enterprise is called back home, they find an unstoppable force of terror from within their own organization has detonated the fleet and everything it stands for, leaving our world in a state of crisis.  With a personal score to settle, Captain Kirk leads a manhunt to a war-zone world to capture a one man weapon of mass destruction. As our heroes are propelled into an epic chess game of life and death, love will be challenged, friendships will be torn apart, and sacrifices must be made for the only family Kirk has left: his crew.",
      "release_date": "2013-05-05"
    },
    {
      "vote_count": 2,
      "id": 136244,
      "video": false,
      "vote_average": 5.5,
      "title": "Star",
      "popularity": 1.183044,
      "poster_path": "/vpqMtghnjLmWhkauaTsQhd5ipOR.jpg",
      "original_language": "en",
      "original_title": "Star",
      "genre_ids": [
        10770,
        10749,
        18
      ],
      "backdrop_path": "/8GE7hVBywIGIkrYS1uuDPpYNzEp.jpg",
      "adult": false,
      "overview": "After Vietnam, Crystal Wyatt meets a returning soldier, Spencer Hill and although she is young they are drawn together and find they have a lot in common. Spencer's visit is fleeting and although he leaves, Crystal still thinks of him often. Crystal's father dies and her mother, who has never really loved Crystal, begins to mistreat her and use her as a skivvy. After years of this, Crystal is attacked and raped by her brother-in-law. When Crystal gets her father's shotgun to kill her brother-in law, her brother-in-law accidentally shoots her brother, and Crystal runs away from the farm to San Francisco where she becomes quite well known as a singer. Menawhile, Spencer has embarked upon a socially beneficial, yet ill-advised marriage, when he meets Crystal again in San Francisco. They embark on a hurtful affair, but the path does not run smooth for them. As intertwined as their lives are, it takes Spencer time to act like a decent man and do what is right.",
      "release_date": "1993-09-20"
    },
    {
      "vote_count": 7,
      "id": 52959,
      "video": false,
      "vote_average": 6,
      "title": "Star!",
      "popularity": 1.116091,
      "poster_path": "/e4I6LDDCaQxBESDtPo0yemtF4JL.jpg",
      "original_language": "en",
      "original_title": "Star!",
      "genre_ids": [
        10749,
        18,
        10402
      ],
      "backdrop_path": "/j5td7oLm44DQF2D3Ml6mtXSOVlt.jpg",
      "adult": false,
      "overview": "Gertrude Lawrence rises to stage stardom at the cost of happiness.",
      "release_date": "1968-07-18"
    },
    {
      "vote_count": 4560,
      "id": 330459,
      "video": false,
      "vote_average": 7.4,
      "title": "Rogue One: A Star Wars Story",
      "popularity": 9.922243,
      "poster_path": "/qjiskwlV1qQzRCjpV0cL9pEMF9a.jpg",
      "original_language": "en",
      "original_title": "Rogue One: A Star Wars Story",
      "genre_ids": [
        28,
        12,
        878
      ],
      "backdrop_path": "/tZjVVIYXACV4IIIhXeIM59ytqwS.jpg",
      "adult": false,
      "overview": "A rogue band of resistance fighters unite for a mission to steal the Death Star plans and bring a new hope to the galaxy.",
      "release_date": "2016-12-14"
    },
    {
      "vote_count": 98,
      "id": 29963,
      "video": false,
      "vote_average": 6.7,
      "title": "Bright Star",
      "popularity": 2.584754,
      "poster_path": "/dMo0ToyAlicDeSNmY47vZkbrRIK.jpg",
      "original_language": "en",
      "original_title": "Bright Star",
      "genre_ids": [
        18,
        10749
      ],
      "backdrop_path": "/bfC8sfsHImqXWO1WHJJWIhWXEbo.jpg",
      "adult": false,
      "overview": "In 1818, high-spirited young Fanny Brawne finds herself increasingly intrigued by the handsome but aloof poet John Keats, who lives next door to her family friends the Dilkes. After reading a book of his poetry, she finds herself even more drawn to the taciturn Keats. Although he agrees to teach her about poetry, Keats cannot act on his reciprocated feelings for Fanny, since as a struggling poet he has no money to support a wife.",
      "release_date": "2009-11-05"
    },
    {
      "vote_count": 1,
      "id": 449430,
      "video": false,
      "vote_average": 5,
      "title": "Star",
      "popularity": 1.044457,
      "poster_path": "/zeGcw5pPVT4DhHrSLUDxE58QJQn.jpg",
      "original_language": "fr",
      "original_title": "Star",
      "genre_ids": [
        18
      ],
      "backdrop_path": "/zDImYTJiECn1b79segxKr382DSe.jpg",
      "adult": false,
      "overview": "Star is a young graffiti writer, the best in his city, Paris. His reputation attracts him as much into art galleries than in the police precincts. Accused of vandalism, he faces jail. Despite the threat, he decides to go to Rome with his crew in search of the meaning of his art.",
      "release_date": "2017-04-03"
    },
    {
      "vote_count": 0,
      "id": 448076,
      "video": false,
      "vote_average": 0,
      "title": "Star Star Star",
      "popularity": 1,
      "poster_path": null,
      "original_language": "zh",
      "original_title": "星星星",
      "genre_ids": [
        35,
        10402,
        10749
      ],
      "backdrop_path": null,
      "adult": false,
      "overview": "Taiwanese musical.",
      "release_date": "1974-03-16"
    },
    {
      "vote_count": 0,
      "id": 339826,
      "video": false,
      "vote_average": 0,
      "title": "Star",
      "popularity": 1.00107,
      "poster_path": "/vJDBvDC1RcIQ95oCzsg6FCcr4lE.jpg",
      "original_language": "en",
      "original_title": "Star",
      "genre_ids": [],
      "backdrop_path": "/33zZdiWZlqcE2nZ364lZzEScBYS.jpg",
      "adult": false,
      "overview": "Murthy (Prashanth) earns his living taking the blame for the mistakes of other people and the jail is his second home. Dhanushkodi (Raghuvaran) has sworn to kill ex-collector Ramanathan's (Vijayakumar) son and so, Ramanathan has transferred his son Santosh (Pravinkanth) to Mauritius while telling the world that he has ran away. Wishing to save his son, he hires Murthy to act as his long lost son, hoping that Dhanushkodi would kill him instead of his actual son. Murthy too accepts the gig since his lover Preeti (Jyotika) is Ramanathan's niece. In the climax, Santhosh supports Dhanushkodi for killing his father, But Dhanushkodi kills Santhosh. The film ends with Murthy taking the blame for killing Santhosh and surrenders himself to police.",
      "release_date": "2001-07-17"
    },
    {
      "vote_count": 0,
      "id": 125225,
      "video": false,
      "vote_average": 0,
      "title": "Star",
      "popularity": 1.000002,
      "poster_path": null,
      "original_language": "en",
      "original_title": "Star",
      "genre_ids": [
        18,
        10751
      ],
      "backdrop_path": null,
      "adult": false,
      "overview": "Dev Kumar Verma comes from a middle-class family and must find employment to support his dad and mom. Dev, however, has set his mind upon becoming a music sensation like Elvis Presley. He loses his job because of this, and refuses to work until and unless he gets a job to his liking, much to the dismay of his parents and his brother, Shiv Kumar. Dev does get employment at Charlie's Disco, where he meets with Maya and falls in love with her.  When Charlie's Disco's competitor, Rana, finds out about Dev, he wants to hire Dev, but Dev decides to continue to work with Charlie's Disco, as a result Dev and Charlie get a beating by Rana's men, and Dev is unable to sing. After recuperating, Dev is devastated to find out that Maya and Shiv Kumar are in love with each other. What impact will this have on Dev and his brother on one hand, and what of his career in music?",
      "release_date": "1982-10-22"
    },
    {
      "vote_count": 0,
      "id": 181808,
      "video": false,
      "vote_average": 0,
      "title": "Star Wars: The Last Jedi",
      "popularity": 5.268775,
      "poster_path": "/1539H2E75rOC9HUA2kSOhDE4d2A.jpg",
      "original_language": "en",
      "original_title": "Star Wars: The Last Jedi",
      "genre_ids": [
        28,
        12,
        14,
        878
      ],
      "backdrop_path": "/c4Dw37VZjBmObmJw9bmt8IDwMZH.jpg",
      "adult": false,
      "overview": "Having taken her first steps into a larger world in Star Wars: The Force Awakens (2015), Rey continues her epic journey with Finn, Poe and Luke Skywalker in the next chapter of the saga.",
      "release_date": "2017-12-13"
    },
    {
      "vote_count": 173,
      "id": 12508,
      "video": false,
      "vote_average": 6,
      "title": "Rock Star",
      "popularity": 2.180491,
      "poster_path": "/eMbsUnRfRciBGLclsqmICPOXbir.jpg",
      "original_language": "en",
      "original_title": "Rock Star",
      "genre_ids": [
        10402,
        18,
        35
      ],
      "backdrop_path": "/7rBbIWriZUllqLabRYtN8O4tDTu.jpg",
      "adult": false,
      "overview": "Rock Star tells the story of Chris Cole and a rock band called Steel Dragon. Cole is a photocopier technician by day, and the lead singer of a Steel Dragon tribute band called \"Blood Pollution\" by night.Internal struggles between the Steel Dragon band members culminate with the firing of the lead singer, Bobby Beers and the starting of recruitment sessions to find a new vocalist. Loosely inspired by the true story of the heavy metal band Judas Priest.",
      "release_date": "2001-09-04"
    },
    {
      "vote_count": 2,
      "id": 6436,
      "video": false,
      "vote_average": 3.5,
      "title": "Star Command",
      "popularity": 1.619562,
      "poster_path": "/r1P9KwtwVu8aAXA7kvuVdkrOYNB.jpg",
      "original_language": "en",
      "original_title": "Star Command",
      "genre_ids": [
        18,
        878,
        53
      ],
      "backdrop_path": "/qWVKB4H1uUvKGo3vZj0sSpCgLgP.jpg",
      "adult": false,
      "overview": "A bunch of young and impulsive space cadets make their first real flight in space and realize that the attack they suffered wasn't a training mission. They face the Enemy alone and have the chance to save the world, and maybe to prevent the war? Can the cadets conquer the more experienced, stronger and much more evil enemy? (Written by Peter 'grin' Gervai  )",
      "release_date": "1996-03-11"
    },
    {
      "vote_count": 645,
      "id": 199,
      "video": false,
      "vote_average": 7,
      "title": "Star Trek: First Contact",
      "popularity": 3.275488,
      "poster_path": "/qhVB8eUGwkdVvd8Fezk0AgcMPDH.jpg",
      "original_language": "en",
      "original_title": "Star Trek: First Contact",
      "genre_ids": [
        878,
        28,
        12,
        53
      ],
      "backdrop_path": "/welkOTUozJ968u1KLx33vPpo7aS.jpg",
      "adult": false,
      "overview": "The Borg, a relentless race of cyborgs, are on a direct course for Earth. Violating orders to stay away from the battle, Captain Picard and the crew of the newly-commissioned USS Enterprise E pursue the Borg back in time to prevent the invaders from changing Federation history and assimilating the galaxy.",
      "release_date": "1996-11-21"
    },
    {
      "vote_count": 72,
      "id": 26748,
      "video": false,
      "vote_average": 6.9,
      "title": "Lone Star",
      "popularity": 1.998826,
      "poster_path": "/eSuuTqr5wmzWu4OCS51Qw0q6VrV.jpg",
      "original_language": "en",
      "original_title": "Lone Star",
      "genre_ids": [
        18,
        9648,
        10749
      ],
      "backdrop_path": "/agzEDlwZ8iUyHz27uKViyoSYHaF.jpg",
      "adult": false,
      "overview": "When the skeleton of his murdered predecessor is found, Sheriff Sam Deeds unearths many other long-buried secrets in his Texas border town.",
      "release_date": "1996-06-21"
    }
  ]
}